<?xml version="1.0" encoding="UTF-8"?>
<svg id="Calque_2" data-name="Calque 2" xmlns="http://www.w3.org/2000/svg" viewBox="0 0 175.89 172.07">
  <defs>
    <style>
      .cls-1 {
        fill: #c1966f;
      }

      .cls-2 {
        fill: #6b5c4d;
      }

      .cls-3 {
        fill: #7a6248;
      }

      .cls-4 {
        fill: #967354;
      }
    </style>
  </defs>
  <g id="Calque_10" data-name="Calque 10">
    <path class="cls-3" d="m0,159.06s85.52,27.59,175.89,0l-20.27-136.54s-61.65-50.67-114.86,0L0,159.06Z"/>
    <g id="Calque_15" data-name="Calque 15">
      <path class="cls-1" d="m0,159.06s104.55-5.93,155.84-135c0,0-112.99,134.72-155.84,135Z"/>
    </g>
    <g id="Calque_11" data-name="Calque 11">
      <path class="cls-2" d="m40.75,22.52c50.55-43.81,114.86,0,114.86,0,0,0-127.53,10.98-114.86,0Z"/>
      <path class="cls-2" d="m155.62,22.52s-77.7,51.52-114.86,0"/>
    </g>
    <g id="Calque_12" data-name="Calque 12">
      <path class="cls-4" d="m0,159.06s111.31-10.99,155.84-135l20.04,135s-76.44,29.28-175.89,0Z"/>
    </g>
  </g>
</svg>