<?xml version="1.0" encoding="UTF-8"?>
<svg id="Calque_2" data-name="Calque 2" xmlns="http://www.w3.org/2000/svg" viewBox="0 0 266.91 294.76">
  <defs>
    <style>
      .cls-1 {
        fill: #c1966f;
      }

      .cls-2 {
        fill: none;
        stroke: #c1966f;
        stroke-miterlimit: 10;
        stroke-width: 12px;
      }
    </style>
  </defs>
  <g id="Calque_10" data-name="Calque 10">
    <path class="cls-1" d="m126.87,13.56s-36.83-30.5-69.83,0,0,55.5,0,55.5h64.5s123,63.33.25,171.17H57.29s-25.25,68.83,62.75,51.83S265.71,112.06,126.87,13.56Z"/>
  </g>
  <g id="Calque_11" data-name="Calque 11">
    <path class="cls-2" d="m5.54,243.56s25.65-61.66,53.71-50.99"/>
    <path class="cls-2" d="m242.49,6c6.02,13.63,13.63,26.55,16.42,41.16,2.28,13.74,5.38,32.8-8.44,42.51"/>
  </g>
</svg>